module code_crack_be

go 1.22.0

require (
	github.com/gofiber/fiber/v2 v2.52.5
	github.com/joho/godotenv v1.5.1
	github.com/lib/pq v1.10.9
	gorm.io/driver/postgres v1.5.9
	gorm.io/gorm v1.25.10
)

require (
	github.com/andybalholm/brotli v1.0.5 // indirect
	github.com/google/uuid v1.5.0 // indirect
	github.com/jackc/pgpassfile v1.0.0 // indirect
	github.com/jackc/pgservicefile v0.0.0-20221227161230-091c0ba34f0a // indirect
	github.com/jackc/pgx/v5 v5.5.5 // indirect
	github.com/jackc/puddle/v2 v2.2.1 // indirect
	github.com/jinzhu/inflection v1.0.0 // indirect
	github.com/jinzhu/now v1.1.5 // indirect
	github.com/klauspost/compress v1.17.0 // indirect
	github.com/mattn/go-colorable v0.1.13 // indirect
	github.com/mattn/go-isatty v0.0.20 // indirect
	github.com/mattn/go-runewidth v0.0.15 // indirect
	github.com/rivo/uniseg v0.2.0 // indirect
	github.com/valyala/bytebufferpool v1.0.0 // indirect
	github.com/valyala/fasthttp v1.51.0 // indirect
	github.com/valyala/tcplisten v1.0.0 // indirect
	golang.org/x/crypto v0.17.0 // indirect
	golang.org/x/exp v0.0.0-20240613232115-7f521ea00fb8
	golang.org/x/sync v0.7.0 // indirect
	golang.org/x/sys v0.15.0 // indirect
	golang.org/x/text v0.14.0 // indirect
)
